Elapsed Time (s),# of NR channel
0,0
5,0
10,0
15,0
20,0
25,0
30,0
35,0
40,0
45,0
50,4
55,4
60,4
65,4
70,4
75,4
80,4
85,4
90,4
95,4
100,4
105,4
110,4
115,4
120,4
125,4
130,4
135,4
140,4
145,4
150,4
155,4
160,4
165,4
170,4
175,4
180,4
185,4
190,4
195,4
200,4
205,4
210,4
215,4
220,4
225,4
230,4
235,4
240,4
245,4
250,4
255,4
260,4
265,4
270,4
275,4
280,4
285,4
290,4
295,4
300,4
305,4
310,4
315,4
320,4
325,4
330,4
335,4
340,4
345,4
350,4
355,4
360,4
365,4
370,4
375,4
380,4
385,4
390,4
