{
    "description": "thermal experiments at Woodlawn dorm and Midway Plaisance (P5)",
    "timespans": [
        {
            "comments": "Trial 2 - Midway, LTE only",
            "start": "2022-01-21T12:45-0600",
            "end": "2022-01-21T13:00:59-0600"
        },
        {
            "comments": "Trial 7 - Woodlawn",
            "nsg": "nsg-1.csv",
            "start": "2022-01-21T14:14-0600",
            "end": "2022-01-21T14:20:59-0600"
        }
    ]
}