if (!exist('inputList') || !exist('titleList')) {
    set print "-"
    print "inputList and titleList variable is needed!"
    exit
}

if (exist('mode') && mode eq 'EPS') {
    if (exist('pdfsizex') && exist('pdfsizey')) {
        sizex = pdfsizex
        sizey = pdfsizey
    } else {
        sizex = 5.5
        sizey = 3.5
    }
    set terminal pdf enhanced color font 'Helvetica,18' size sizex, sizey
    set output outputName.'.pdf'
} else {
    set terminal pngcairo dashed transparent enhanced font 'Helvetica,18' fontscale 0.8 size 800, 600
    set output outputName.'.png'
}

inputs(n) = word(inputList, n)
titles(n) = word(titleList, n)

#styles
set style line 1 lt 1 lw 4 dt 1
set style line 2 lt 2 lw 4 dt 1
set style line 3 lt 3 lw 4 dt 1
set style line 4 lt 4 lw 4 dt 1
set style line 5 lt 5 lw 4 dt 1
set style line 6 lt 6 lw 4 dt 1
set style line 7 lt 7 lw 4 dt 1
set style line 8 lt 8 lw 4 dt 1
set style line 9 lt 9 lw 4 dt 1
set style line 10 lc rgb "#6828f6" lw 4 dt 1
set style line 11 lc rgb "#ffc87e" lw 4 dt 1
set style line 12 lc rgb "#f6647e" lw 4 dt 1
set style line 13 lc rgb "#748a40" lw 4 dt 1

set xlabel 'Elapsed time (s)'
# set key top right
# set yrange[0:1]
set grid xtics ytics front
# set y2tics 0, 5
# set ytics nomirror

plot \
    for [i=1:tputNum] inputs(i) using 1:2 title titles(i) axis x1y1 with lines ls i-(floor((i-1)/13)*13), \
    for [i=tputNum+1:words(inputList)] inputs(i) using 1:2 title titles(i) axis x1y2 with lines lc rgb "#22ffc87e" lw 4

exit