Elapsed Time (s),NR Tput (Mbps),LTE Tput (Mbps),Total Tput (Mbps),# of NR channel
0.333,,,0,1
10.625,,,0,1
22.64,,,0,1
33.641,,,0,1
43.653,,,1106.5,4
53.641,,,1043.4,4
63.662,,,522.4,1
73.651,,,535.5,1
84.664,,,520.1,1
