Elapsed Time (s),NR Tput (Mbps),LTE Tput (Mbps),Total Tput (Mbps),# of NR channel
0.785,,,0,1
11.626,,,1044.1,4
22.63,,,1049.8,4
32.629,,,1067.3,4
43.636,,,1047.1,4
54.633,,,1034.2,4
64.634,,,1030.6,4
74.664,,,1017.3,4
85.662,,,522.1,1
95.686,,,521.9,1
