Elapsed Time (s),NR Tput (Mbps),LTE Tput (Mbps),Total Tput (Mbps),# of NR channel
0.62,,,0,1
10.625,,,0,1
20.63,,,1117.5,4
30.65,,,1118.7,4
40.691,,,1125.3,4
50.708,,,1028,4
60.715,,,988,4
70.718,,,521.9,1
80.725,,,524.5,1
